<svg width="18" height="15" viewBox="0 0 18 15" fill="none" xmlns="http://www.w3.org/2000/svg">
<path d="M18 1.875C18 0.84375 17.19 0 16.2 0H1.8C0.81 0 0 0.84375 0 1.875V13.125C0 14.1562 0.81 15 1.8 15H16.2C17.19 15 18 14.1562 18 13.125V1.875ZM16.2 1.875L9 6.5625L1.8 1.875H16.2ZM16.2 13.125H1.8V3.75L9 8.4375L16.2 3.75V13.125Z" fill="#2DA6FE"/>
</svg>
